$$$$$$$\  $$$$$$$$\  $$$$$$\ $$$$$$$$\ $$\   $$\ $$$$$$\ $$\   $$\ 
$$  __$$\ $$  _____|$$  __$$\\__$$  __|$$$\  $$ |\_$$  _|$$ | $$  |
$$ |  $$ |$$ |      $$ /  $$ |  $$ |   $$$$\ $$ |  $$ |  $$ |$$  / 
$$$$$$$\ |$$$$$\    $$$$$$$$ |  $$ |   $$ $$\$$ |  $$ |  $$$$$  /  
$$  __$$\ $$  __|   $$  __$$ |  $$ |   $$ \$$$$ |  $$ |  $$  $$<   
$$ |  $$ |$$ |      $$ |  $$ |  $$ |   $$ |\$$$ |  $$ |  $$ |\$$\  
$$$$$$$  |$$$$$$$$\ $$ |  $$ |  $$ |   $$ | \$$ |$$$$$$\ $$ | \$$\ 
\_______/ \________|\__|  \__|  \__|   \__|  \__|\______|\__|  \__|
                                                                   
                                                                   
                                                                   